 nti  I  o  Inm hopi   you   ll kn w whpt I m  n
Be a se 
'  easy co e, e sy gh
For  er  rusting wh  w   r 
 he scars   ?your lov  remind    o  us
H .s    st`c ed   at  e jn  s  uhe  te  o s  ncg    his 
Mn  I m s  d azy. do  t k o  wh t h t mz. but  'll be alri  t
Thece   n  pla e qr   
On  bl+w?  nm   ting in
Just like   pr yef you  now I sl   ke   u  h re
