What are you trying to do? Are you trying to break my cryptosystem?
Do you know that reading other people's letters is not very nice and not polite?
I am not doing that knind of things! Shame on you! Shame, shame, shame!
Who on earth gets into my personal life like that? And why are you doing it?
Is someone forcing you? No? If not, then what the hell is wrong with you?
My messages to Bob are strictly confidential! Only me, Bob and the NSA can read this e-mails..
So, dear hacker, stop it right now!
Best regards,
Alice.
